{
    "tumblelog": {
        "title": "Digital Forms iOS Blog",
        "description": "Why i stopped worrying, and loved iOS.",
        "name": "digitalforms",
        "timezone": "US/Eastern",
        "cname": false,
        "feeds": []
    },
    "posts-start": 0,
    "posts-total": 2,
    "posts-type": false,
    "posts": [
              {
              "id": "86734144176",
              "url": "http://digitalforms.tumblr.com/post/86734144176",
              "url-with-slug": "http://digitalforms.tumblr.com/post/86734144176/ive-lost-so-much-weight-since-using-garcinia",
              "type": "regular",
              "date-gmt": "2014-05-24 22:57:22 GMT",
              "date": "Sat, 24 May 2014 18:57:22",
              "bookmarklet": 0,
              "mobile": 0,
              "feed-item": "",
              "from-feed-id": 0,
              "unix-timestamp": 1400972242,
              "format": "html",
              "reblog-key": "0GoiRBVg",
              "slug": "ive-lost-so-much-weight-since-using-garcinia",
              "regular-title": "I've lost so much weight, since using garcinia!",
              "regular-body": "<p><a href=\"http://pic-me.me/qff/\"><img alt=\"image\" src=\"http://i.imgur.com/aDx8Nkb.png\"/></a></p>"
              },
              {
              "id": "38462518795",
              "url": "http://digitalforms.tumblr.com/post/38462518795",
              "url-with-slug": "http://digitalforms.tumblr.com/post/38462518795/multilanguage-solution-inside-ios-applications",
              "type": "regular",
              "date-gmt": "2012-12-21 13:50:00 GMT",
              "date": "Fri, 21 Dec 2012 08:50:00",
              "bookmarklet": 0,
              "mobile": 0,
              "feed-item": "",
              "from-feed-id": 0,
              "unix-timestamp": 1356097800,
              "format": "html",
              "reblog-key": "POZXA7EI",
              "slug": "multilanguage-solution-inside-ios-applications",
              "regular-title": "Multilanguage solution inside iOS applications",
              "regular-body": "<p>Hey, </p>\n<p>I realised that many people got problems with applying multi languages to their applications.</p>\n<p>Apple currently supports multi language, but you cannot change them in app. At start, applications look at default language in device settings. But what if you want to change it inside app?</p>\n<p>I wrote a solution.</p>\n<p>Language system is a dead-simple singleton class with main function:</p>\n<p class=\"p1\">- (<span class=\"s1\">NSString</span> *)getLanguageStringByTag:(<span class=\"s1\">NSString</span> *)tag</p>\n<p class=\"p1\">It returns a string, from a current localizable.string. If you are not faimiliar with localizable strings, check out this great tutorial:</p>\n<p class=\"p1\"><a href=\"http://www.raywenderlich.com/2876/how-to-localize-an-iphone-app-tutorial\">http://www.raywenderlich.com/2876/how-to-localize-an-iphone-app-tutorial</a></p>\n<p class=\"p1\">Localizable strings are build-in apple solution for supplying multi language. However it&rsquo;s not possible to change them inside app.</p>\n<p class=\"p1\">Here is an example project:</p>\n<p class=\"p1\"><a href=\"http://www.digitalforms.pl/projects/blog/languagesystemexample.zip\">http://www.digitalforms.pl/projects/blog/languagesystemexample.zip</a></p>\n<p class=\"p1\">You can use it any way you want, but it would be nice to leave a comment if you find it usefull :)</p>",
              "tags": [
                       "iOS",
                       "iPhone",
                       "multilanguage",
                       "XCode",
                       "Tutorial",
                       "Example",
                       "Application"
                       ]
              }
              ]
}